[
  { "title": "Enantiomers", "mcat_section": "Organic Chemistry", "data": "Chiral molecules, non-superimposable to each other.\n\n" },
  { "title": "Isomer", "mcat_section": "Organic Chemistry", "data": "Same molecular formula but different structural or spatial arrangements.\n\n" },
  { "title": "Constitutional Isomer", "mcat_section": "Organic Chemistry", "data": "Same molecular formula but different in bonding and structure.\n\n" },
  { "title": "Stereioisomers", "mcat_section": "Organic Chemistry", "data": "Same molecular formula but with different spatial arrangements.\n\n" },
  { "title": "Chiral", "mcat_section": "Organic Chemistry", "data": "Non-superimposable.\n\nOptically Active - Rotates Light.\n\n" },
  { "title": "Achiral", "mcat_section": "Organic Chemistry", "data": "Superimposable.\n\nContain a meso sterocenter.\n\n" },
  { "title": "Meso Compounds", "mcat_section": "Organic Chemistry", "data": "Non-Optically Active.\n\nAchiral.\n\n\n\n" },
  { "title": "Strong Acid", "mcat_section": "Organic Chemistry", "data": "An Acid that fully dissociates.\n\n" },
  { "title": "Strong Base", "mcat_section": "Organic Chemistry", "data": "A Base that fully dissociates.\n\n" },
  { "title": "Weak Acid", "mcat_section": "Organic Chemistry", "data": "An Acid that does not fully dissociates.\n\n" },
  { "title": "Weak Base", "mcat_section": "Organic Chemistry", "data": "A Base that does not fully dissociates.\n\n" },
  { "title": "More to come...", "mcat_section": "Organic Chemistry", "data": "...\n\n" }
]