{
  "project_info": {
    "project_number": "427888648313",
    "firebase_url": "https://mcat-review-c0914.firebaseio.com",
    "project_id": "mcat-review-c0914",
    "storage_bucket": "mcat-review-c0914.appspot.com"
  },
  "client": [
    {
      "client_info": {
        "mobilesdk_app_id": "1:427888648313:android:70825a42c8d5eb38e134a8",
        "android_client_info": {
          "package_name": "com.ericnarvaez.mcatreview"
        }
      },
      "oauth_client": [
        {
          "client_id": "427888648313-aa58plq9qqh5inrjs70an5b53rbkr8fj.apps.googleusercontent.com",
          "client_type": 3
        }
      ],
      "api_key": [
        {
          "current_key": "AIzaSyC19ldLW3f_OwwgZ_Su_bKBryi4abysX34"
        }
      ],
      "services": {
        "appinvite_service": {
          "other_platform_oauth_client": [
            {
              "client_id": "427888648313-aa58plq9qqh5inrjs70an5b53rbkr8fj.apps.googleusercontent.com",
              "client_type": 3
            }
          ]
        }
      }
    }
  ],
  "configuration_version": "1"
}